<?xml version="1.0" encoding="utf-8"?>
<!-- Generator: Adobe Illustrator 21.0.0, SVG Export Plug-In . SVG Version: 6.00 Build 0)  -->
<svg version="1.1" id="Layer_1" xmlns="http://www.w3.org/2000/svg" xmlns:xlink="http://www.w3.org/1999/xlink" x="0px" y="0px"
	 width="60px" height="60px" viewBox="0 0 60 60" style="enable-background:new 0 0 60 60;" xml:space="preserve">
<style type="text/css">
	.st0{fill:#0c943f;}
</style>
<g>
	<path class="st0" d="M15.7,35.12H9.16c-0.73,0-1.32-0.59-1.32-1.32v-4.09c0-0.73,0.59-1.32,1.32-1.32h6.54
		c0.73,0,1.32,0.59,1.32,1.32v4.09C17.02,34.53,16.43,35.12,15.7,35.12z M9.16,29.39c-0.18,0-0.32,0.14-0.32,0.32v4.09
		c0,0.17,0.14,0.32,0.32,0.32h6.54c0.18,0,0.32-0.14,0.32-0.32v-4.09c0-0.18-0.14-0.32-0.32-0.32H9.16z"/>
	<g>
		<path class="st0" d="M47.55,47.63c-5.23,0-9.49-4.26-9.49-9.49s4.26-9.49,9.49-9.49s9.49,4.26,9.49,9.49
			C57.03,43.37,52.78,47.62,47.55,47.63z M47.55,29.66c-4.68,0-8.49,3.81-8.49,8.49s3.81,8.49,8.49,8.49
			c4.67-0.01,8.48-3.81,8.49-8.49C56.04,33.46,52.23,29.66,47.55,29.66z"/>
		<path class="st0" d="M50.03,41.94c-0.22,0-0.43-0.08-0.58-0.24L47,39.25c-0.15-0.15-0.24-0.36-0.24-0.58v-5.72
			c0-0.45,0.37-0.82,0.82-0.82c0.45,0,0.82,0.37,0.82,0.82v5.39l2.22,2.22c0.32,0.32,0.31,0.84-0.01,1.16
			C50.45,41.86,50.25,41.94,50.03,41.94z"/>
	</g>
	<path class="st0" d="M46.76,23.58H8.34c-0.28,0-0.5-0.22-0.5-0.5s0.22-0.5,0.5-0.5h38.42c0.28,0,0.5,0.22,0.5,0.5
		S47.04,23.58,46.76,23.58z"/>
	<path class="st0" d="M46.76,18.67H8.34c-0.28,0-0.5-0.22-0.5-0.5s0.22-0.5,0.5-0.5h38.42c0.28,0,0.5,0.22,0.5,0.5
		S47.04,18.67,46.76,18.67z"/>
	<path class="st0" d="M37.18,46.57H7.02c-1.73,0-3.14-1.41-3.14-3.15V15.84c0-1.73,1.41-3.14,3.14-3.14h45.97
		c1.73,0,3.14,1.41,3.14,3.15v11.78c0.36,0.2,0.72,0.42,1.06,0.65V15.84c0-2.32-1.89-4.21-4.21-4.21H7.02
		c-2.32,0-4.21,1.89-4.21,4.21v27.58c0,2.32,1.89,4.21,4.21,4.21h30.81C37.6,47.29,37.38,46.93,37.18,46.57z"/>
</g>
</svg>
