<?xml version="1.0" encoding="utf-8"?>
<!-- Generator: Adobe Illustrator 21.0.0, SVG Export Plug-In . SVG Version: 6.00 Build 0)  -->
<svg version="1.1" id="Outline" xmlns="http://www.w3.org/2000/svg" xmlns:xlink="http://www.w3.org/1999/xlink" x="0px" y="0px"
	 width="20px" height="20px" viewBox="0 0 20 20" style="enable-background:new 0 0 20 20;" xml:space="preserve">
<style type="text/css">
	.st0{fill:#0c943f;}
</style>
<g>
	<path class="st0" d="M18.3,16.63H1.7c-0.91,0-1.64-0.74-1.65-1.65V5.02c0-0.91,0.74-1.64,1.65-1.65h16.6
		c0.91,0,1.64,0.74,1.64,1.65v9.96C19.94,15.89,19.21,16.62,18.3,16.63z M1.7,4.01c-0.56,0-1.01,0.45-1.01,1.01v9.96
		c0,0.56,0.45,1.01,1.01,1.01h16.6c0.56,0,1.01-0.45,1.01-1.01V5.02c0-0.56-0.45-1.01-1.01-1.01H1.7z"/>
	<path class="st0" d="M2.84,7.87c-0.37,0-0.67-0.3-0.67-0.67V6.16c0-0.37,0.3-0.67,0.67-0.67h1.04c0.37,0,0.67,0.3,0.67,0.67V7.2
		c0,0.37-0.3,0.67-0.67,0.67H2.84z M2.47,7.2c0,0.2,0.17,0.37,0.37,0.37h1.04c0.2,0,0.37-0.17,0.37-0.37V6.83H3.88
		c-0.08,0-0.15-0.07-0.15-0.15S3.8,6.53,3.88,6.53h0.37V6.16c0-0.2-0.17-0.37-0.37-0.37H2.84c-0.2,0-0.37,0.17-0.37,0.37v0.37h0.37
		c0.08,0,0.15,0.07,0.15,0.15S2.92,6.83,2.84,6.83H2.47V7.2z"/>
	<path class="st0" d="M2.36,12.66c-0.11,0-0.19-0.09-0.19-0.19s0.09-0.19,0.19-0.19h4.98c0.11,0,0.19,0.09,0.19,0.19
		s-0.09,0.19-0.19,0.19H2.36z"/>
	<path class="st0" d="M2.36,13.98c-0.11,0-0.19-0.09-0.19-0.19c0-0.11,0.09-0.19,0.19-0.19H9c0.11,0,0.19,0.09,0.19,0.19
		S9.11,13.98,9,13.98l0,0L2.36,13.98z"/>
	<path class="st0" d="M16.43,14.65c-0.27,0-0.53-0.07-0.76-0.2L15.6,14.4l-0.07,0.04c-0.23,0.13-0.49,0.2-0.76,0.2
		c-0.27,0-0.53-0.07-0.76-0.2c-0.35-0.2-0.6-0.53-0.71-0.92c-0.11-0.39-0.05-0.8,0.15-1.15c0.27-0.47,0.78-0.76,1.32-0.76
		c0.27,0,0.53,0.07,0.76,0.2l0.07,0.04l0.07-0.04c0.23-0.13,0.49-0.2,0.76-0.2c0.27,0,0.53,0.07,0.76,0.2
		c0.35,0.2,0.6,0.53,0.71,0.92c0.1,0.39,0.05,0.8-0.15,1.15C17.48,14.36,16.97,14.65,16.43,14.65z M16.43,11.99
		c-0.12,0-0.23,0.02-0.34,0.05l-0.18,0.06l0.11,0.16c0.36,0.52,0.36,1.22,0,1.74l-0.11,0.16l0.18,0.06
		c0.11,0.04,0.23,0.05,0.34,0.05c0.3,0,0.59-0.12,0.8-0.33c0.21-0.21,0.33-0.5,0.33-0.8c0-0.12-0.02-0.23-0.05-0.34
		C17.36,12.31,16.93,11.99,16.43,11.99z M14.77,11.99c-0.63,0-1.13,0.51-1.14,1.14c0,0.63,0.51,1.14,1.14,1.14
		c0.63,0,1.14-0.51,1.14-1.14S15.4,11.99,14.77,11.99L14.77,11.99z"/>
	<path class="st0" d="M2.36,10c-0.11,0-0.19-0.09-0.19-0.19s0.09-0.19,0.19-0.19h1.99c0.11,0,0.19,0.09,0.19,0.19S4.46,10,4.36,10
		H2.36z"/>
	<path class="st0" d="M6.35,10c-0.11,0-0.19-0.09-0.19-0.19s0.09-0.19,0.19-0.19h1.99c0.11,0,0.19,0.09,0.19,0.19S8.45,10,8.34,10
		H6.35z"/>
	<path class="st0" d="M10.33,10c-0.11,0-0.19-0.09-0.19-0.19s0.09-0.19,0.19-0.19h1.99c0.11,0,0.19,0.09,0.19,0.19
		S12.43,10,12.32,10H10.33z"/>
	<path class="st0" d="M14.32,10c-0.11,0-0.19-0.09-0.19-0.19s0.09-0.19,0.19-0.19h1.99c0.11,0,0.19,0.09,0.19,0.19
		S16.41,10,16.31,10H14.32z"/>
</g>
</svg>
