<?xml version="1.0" encoding="utf-8"?>
<!-- Generator: Adobe Illustrator 25.2.1, SVG Export Plug-In . SVG Version: 6.00 Build 0)  -->
<svg version="1.1" id="Capa_1" xmlns="http://www.w3.org/2000/svg" xmlns:xlink="http://www.w3.org/1999/xlink" x="0px" y="0px"
	 width="30px" height="30px" viewBox="0 0 30 30" style="enable-background:new 0 0 30 30;" xml:space="preserve">
<style type="text/css">
	.st0{fill:#FFFFFF;}
</style>
<path class="st0" d="M14.99,25c-0.13,0-0.25-0.05-0.35-0.13l-0.78-0.67c-0.4-0.34-0.79-0.67-1.17-0.99l-0.89-0.76
	c-2.11-1.67-4.1-3.51-5.93-5.47c-1.57-1.87-2.3-3.62-2.3-5.49C3.54,9.82,4.13,8.21,5.22,6.96S7.89,5,9.54,5
	c1.39,0,2.74,0.51,3.79,1.43c0.39,0.34,0.73,0.73,1.01,1.16C14.5,7.8,14.64,8,14.75,8.21l0.24,0.44l0.34-0.55
	c0.11-0.18,0.2-0.34,0.31-0.49C16.71,5.97,18.51,5,20.45,5c1.12,0,2.21,0.33,3.15,0.94c0.43,0.28,0.82,0.62,1.16,1.01
	c1.1,1.25,1.69,2.85,1.67,4.51c0,1.88-0.74,3.62-2.33,5.5c-1.81,1.96-3.8,3.8-5.9,5.46l-0.84,0.72c-0.34,0.3-0.69,0.59-1.05,0.89
	l-0.92,0.78C15.27,24.93,15.13,24.99,14.99,25L14.99,25z M9.57,6.13c-1.33,0-2.6,0.57-3.48,1.57c-0.91,1.05-1.4,2.39-1.37,3.78
	c0,3.48,3.1,6.09,7.8,10.04l1.43,1.21c0.28,0.24,1.04,0.89,1.04,0.89l0.19-0.16c0.41-0.35,0.8-0.68,1.19-1.02l0.3-0.26l0.78-0.65
	c4.71-3.96,7.83-6.58,7.83-10.08c0.02-1.38-0.46-2.73-1.37-3.78c-0.87-0.99-2.13-1.56-3.45-1.56c-1.11,0-2.19,0.41-3.03,1.14
	c-0.33,0.29-0.61,0.62-0.85,0.99c-0.44,0.62-0.78,1.32-1.03,2.05c-0.08,0.25-0.3,0.41-0.56,0.41c-0.06,0-0.12-0.01-0.18-0.03
	c-0.18-0.06-0.32-0.2-0.38-0.38c-0.25-0.74-0.6-1.43-1.04-2.06c-0.84-1.28-2.26-2.08-3.8-2.13L9.57,6.13z"/>
</svg>
