<?xml version="1.0" encoding="utf-8"?>
<!-- Generator: Adobe Illustrator 25.2.1, SVG Export Plug-In . SVG Version: 6.00 Build 0)  -->
<svg version="1.1" id="Capa_1" xmlns="http://www.w3.org/2000/svg" xmlns:xlink="http://www.w3.org/1999/xlink" x="0px" y="0px"
	 width="30px" height="30px" viewBox="0 0 30 30" style="enable-background:new 0 0 30 30;" xml:space="preserve">
<style type="text/css">
	.st0{fill:#FFFFFF;}
</style>
<g>
	<path class="st0" d="M22.07,7.93C20.18,6.04,17.67,5,15,5S9.82,6.04,7.93,7.93C6.04,9.82,5,12.33,5,15c0,1.76,0.46,3.49,1.34,5
		L5,25l5-1.34c1.52,0.88,3.24,1.34,5,1.34c2.67,0,5.18-1.04,7.07-2.93C23.96,20.18,25,17.67,25,15S23.96,9.82,22.07,7.93z M15,23.83
		c-1.63,0-3.22-0.45-4.61-1.3l-0.21-0.13l-3.52,0.94l0.94-3.52l-0.13-0.21c-0.85-1.38-1.3-2.98-1.3-4.61c0-4.87,3.96-8.83,8.83-8.83
		s8.83,3.96,8.83,8.83S19.87,23.83,15,23.83z"/>
	<rect x="14.41" y="18.81" class="st0" width="1.17" height="1.17"/>
	<path class="st0" d="M15,10.02c-1.62,0-2.93,1.31-2.93,2.93h1.17c0-0.97,0.79-1.76,1.76-1.76s1.76,0.79,1.76,1.76
		c0,0.43-0.16,0.85-0.45,1.17l-1.9,2.12v1.4h1.17v-0.95l1.6-1.79c0.48-0.54,0.75-1.23,0.75-1.95C17.93,11.33,16.62,10.02,15,10.02z"
		/>
</g>
</svg>
